Generate random linelist or survey data — gen_data • epidict
…
#> 16 A16         2018-02-20  Villag…      57      NA      NA M     NA      NA     
#> 17 A17         2018-02-15  Villag…      NA      12      NA U     NA      NA     
#> 18 A18         2018-01-01  Villag…      15      NA      NA U     NA      NA     
#> 19 A19         2018-04-10  Villag…      34      NA      NA F     W       NA     
#> 20 A20         2018-03-20  Villag…       8      NA      NA F     N       NA     
#> # … with 36 more variables: foetus_alive_at_admission <fct>, exit_status <fct>,
#> #   date_of_exit <date>, time_to_death <fct>, pregnancy_outcome_at_exit <fct>,
#> #   previously_vaccinated <fct>, previous_vaccine_doses_received <fct>,
#> #   readmission <fct>, msf_involvement <fct>,
#> #   cholera_treatment_facility_type <fct>, residential_status_brief <fct>,
#> #   date_of_last_vaccination <date>, prescribed_zinc_supplement <fct>,
#> #   prescribed_antibiotics <fct>, ors_consumed_litres <int>, …
#> > dict <- msf_dict(disease = "Cholera", long = TRUE, compact = FALSE, tibble = TRUE)
#> > print(dict)
#> # A tibble: 182 × 11
#>    data_elemen…¹ data_…² data_…³ data_…⁴ data_…⁵ data_…⁶ used_…⁷ optio…⁸ optio…⁹
#>    <chr>         <chr>   <chr>   <chr>   <chr>   <chr>   <chr>   <chr>   <chr>  
#>  1 AafTlSwliVQ   egen_0… case_n… Anonym… TEXT    Case n… NA      NA      NA     
#>  2 OTGOtWBz39J   egen_0… date_o… Date p… DATE    Date o… NA      NA      NA     
#>  3 wnmMr2V3T3u   egen_0… patien… Locati… ORGANI… Patien… NA      NA      NA     
#>  4 sbgqjeVwtb8   egen_0… age_ye… Age of… INTEGE… Age in… NA      NA      NA     
#>  5 eXYhovYyl61   egen_0… age_mo… Age of… INTEGE… Age in… NA      NA      NA     
#>  6 UrYJSk2Wp46   egen_0… age_da… Age of… INTEGE… Age in… NA      NA      NA     
#>  7 D1Ky5K7pFN6   egen_0… sex     Sex of… TEXT    Sex     orgc5Y… M       Male   
#>  8 D1Ky5K7pFN6   egen_0… sex     Sex of… TEXT    Sex     orgc5Y… F       Female 
#>  9 D1Ky5K7pFN6   egen_0… sex     Sex of… TEXT    Sex     orgc5Y… U       Unknow…
#> 10 dTm5R53YYXC   egen_0… pregna… Pregna… TEXT    Pregna… IEjzG2… N       Not cu…
#> # … with 172 more rows, 2 more variables: option_uid <chr>,
#> #   option_order_in_set <dbl>, and abbreviated variable names
#> #   ¹​data_element_uid, ²​data_element_name, ³​data_element_shortname,
#> #   ⁴​data_element_description, ⁵​data_element_valuetype, ⁶​data_element_formname,
#> #   ⁷​used_optionset_uid, ⁸​option_code, ⁹​option_name
…
