MSF data dictionaries and dummy datasets — msf_dict • epidict
…
#> 17 A17         2018-03-14                    Village B             37         NA
#> 18 A18         2018-01-22                    Village A             45         NA
#> 19 A19         2018-01-13                    Village C             59         NA
#> 20 A20         2018-04-24                    Village D             83         NA
#> # ℹ abbreviated name: ¹​date_of_consultation_admission
#> # ℹ 40 more variables: age_days <int>, sex <fct>, pregnant <fct>,
#> #   trimester <fct>, foetus_alive_at_admission <fct>, exit_status <fct>,
#> #   date_of_exit <date>, time_to_death <fct>, pregnancy_outcome_at_exit <fct>,
#> #   previously_vaccinated <fct>, previous_vaccine_doses_received <fct>,
#> #   readmission <fct>, msf_involvement <fct>,
#> #   cholera_treatment_facility_type <fct>, residential_status_brief <fct>, …
#> > dict <- msf_dict(dictionary = "Cholera", long = TRUE, compact = FALSE, 
#> +     tibble = TRUE)
#> > print(dict)
#> # A tibble: 182 × 11
#>    data_element_uid data_element_name                     data_element_shortname
#>    <chr>            <chr>                                 <chr>                 
#>  1 AafTlSwliVQ      egen_001_patient_case_number          case_number           
#>  2 OTGOtWBz39J      egen_004_date_of_consultation_admiss… date_of_consultation_…
#>  3 wnmMr2V3T3u      egen_006_patient_origin               patient_origin        
#>  4 sbgqjeVwtb8      egen_008_age_years                    age_years             
#>  5 eXYhovYyl61      egen_009_age_months                   age_months            
#>  6 UrYJSk2Wp46      egen_010_age_days                     age_days              
#>  7 D1Ky5K7pFN6      egen_011_sex                          sex                   
#>  8 D1Ky5K7pFN6      egen_011_sex                          sex                   
#>  9 D1Ky5K7pFN6      egen_011_sex                          sex                   
#> 10 dTm5R53YYXC      egen_012_pregnancy_status             pregnant              
#> # ℹ 172 more rows
#> # ℹ 8 more variables: data_element_description <chr>,
#> #   data_element_valuetype <chr>, data_element_formname <chr>,
#> #   used_optionset_uid <chr>, option_code <chr>, option_name <chr>,
#> #   option_uid <chr>, option_order_in_set <dbl>
…
