Introduction to epidict • epidict
…
Cholera/Acute watery diarrhea (“Cholera”)

Measles/Rubella (“Measles”)

Meningitis (“Meningitis”)

You can read more about the outbreak dictionaries at https://r4epis.netlify.com/outbreaks

The dictionary can be obtained via the msf_dict() function, which specifies a dictionary that describes recorded variables (data_element_shortname) in rows and their possible options (if categorical):

Click here for code examples

library("epidict")
msf_dict("AJS")
#> # A tibble: 68 x 8
#>    data_element_uid data_element_name   data_element_sho~ data_element_descript~
#>    <lgl>            <chr>               <chr>             <chr>                 
#>  1 NA               egen_044_event_fil~ event_file_type   Is the event file for~
#>  2 NA               egen_001_patient_c~ case_number       Anonymised patient nu~
#>  3 NA               egen_004_date_of_c~ date_of_consulta~ Date patient presents~
#>  4 NA               egen_022_detected_~ detected_by       How patient was ident~
#>  5 NA               egen_005_patient_f~ patient_facility~ Patient is presenting~
#>  6 NA               egen_029_msf_invol~ msf_involvement   How extensive is MSF'~
#>  7 NA               egen_008_age_years  age_years         Age of patient (in ye~
#>  8 NA               egen_009_age_months age_months        Age of patient in mon~
#>  9 NA               egen_010_age_days   age_days          Age of patient in day~
#> 10 NA               egen_011_sex        sex               Sex of patient (If Tr~
#> # ... with 58 more rows, and 4 more variables: data_element_valuetype <chr>,
#> #   data_element_formname <chr>, used_optionset_uid <chr>, options <list>
msf_dict("Cholera")
#> # A tibble: 45 x 8
#>    data_element_uid data_element_name    data_element_sho~ data_element_descrip~
#>    <chr>            <chr>                <chr>             <chr>                
#>  1 FF7d81Zy0yQ      egen_013_pregnancy_~ trimester         If pregnant, trimest~
#>  2 ADfNqpCL5kf      egen_015_exit_status exit_status       Final status of pati~
#>  3 wjCDTwXmtix      egen_064_treatment_~ treatment_facili~ Name of facility/sit~
#>  4 UUVnMdaBY5T      esym_002_dehydratio~ dehydration_leve~ Dehydration based on~
#>  5 BTZdJKpS3S5      egen_059_comments_o~ comments_on_lab_~ Any additional comme~
#>  6 bpT8T341oQG      egen_054_fluids_tre~ fluids_treatment~ What was the fluids ~
#>  7 FqPqIr5m0AQ      egen_017_time_betwe~ time_to_death     Hours between patien~
#>  8 epbKb1GczaS      esym_003_malaria_rd~ malaria_rdt_at_a~ Malaria rapid diagno~
#>  9 F04TM58HHsd      egen_020_previously~ previously_vacci~ Has the patient prev~
#> 10 CfRNuWWuTr5      egen_058_cholera_pc~ cholera_pcr_resu~ Was a PCR test for c~
#> # ... with 35 more rows, and 4 more variables: data_element_valuetype <chr>,
#> #   data_element_formname <chr>, used_optionset_uid <chr>, options <list>
msf_dict("Measles")
#> # A tibble: 52 x 8
#>    data_element_uid data_element_name    data_element_sho~ data_element_descrip~
#>    <chr>            <chr>                <chr>             <chr>                
#>  1 DE_ESYM_012      esym_012_seizures    seizure_episodes  Complication (Seizur~
#>  2 DE_EGEN_013      egen_013_pregnancy_~ trimester         If pregnant, trimest~
#>  3 DE_ESYM_014      esym_014_croup       croup             Complication (Croup)~
#>  4 DE_ESYM_002      esym_002_dehydratio~ dehydration_leve~ Dehydration based on~
#>  5 DE_EGEN_030      egen_030_residentia~ residential_stat~ Whether the patient ~
#>  6 DE_EGEN_020      egen_020_previously~ previously_vacci~ Has the patient prev~
#>  7 DE_EGEN_062      egen_062_patient_or~ patient_origin_f~ Name of village or p~
#>  8 DE_EGEN_010      egen_010_age_days    age_days          Age of patient in da~
#>  9 DE_EGEN_029      egen_029_msf_involv~ msf_involvement   How extensive is MSF~
#> 10 DE_EGEN_053      egen_053_nutrition_~ nutrition_status~ What is the nutritio~
#> # ... with 42 more rows, and 4 more variables: data_element_valuetype <chr>,
#> #   data_element_formname <chr>, used_optionset_uid <chr>, options <list>
msf_dict("Meningitis")
#> # A tibble: 53 x 8
#>    data_element_uid data_element_name    data_element_sh~ data_element_descript~
#>    <chr>            <chr>                <chr>            <chr>                 
#>  1 Ow8ss6T1tT5      esym_028_seizures_a~ seizures_at_adm~ Presenting symptoms (~
#>  2 CEEr9lcwKVG      esym_036_kernigs_br~ kernigs_brudzin~ Presenting symptoms (~
#>  3 tIe59Htd2Ba      esym_012_seizures    seizure_episodes Complication (Seizure~
#>  4 Sjms36Aj6bT      esym_023_febrile_co~ febrile_coma     Complication (Febrile~
#>  5 BTZdJKpS3S5      egen_059_comments_o~ comments_on_lab~ Any additional commen~
#>  6 wHnNEMRrS5A      esym_025_chills_at_~ chills           Presenting symptoms (~
#>  7 T3Gn8mTYu0c      esym_026_stiff_neck~ stiff_neck       Presenting symptoms (~
#>  8 JCexRYsmjmS      eobr_006_ti_sample_~ ti_result_organ~ TI sample result - or~
#>  9 myL5BYzy6zW      esym_034_coma_at_ad~ coma             Presenting symptoms (~
#> 10 AhllpMovCeu      egen_062_patient_or~ patient_origin_~ Name of village or pa~
#> # ... with 43 more rows, and 4 more variables: data_element_valuetype <chr>,
#> #   data_element_formname <chr>, used_optionset_uid <chr>, options <list>
…
Retrospective mortality and access to care (“Mortality”)

Malnutrition (“Nutrition”)

Vaccination coverage long form (“vaccination_long”)

You can read more about the survey dictionaries at https://r4epis.netlify.com/surveys

These are accessible via msf_dict_survey() where the variables are in name. You can also read in your own Kobo (ODK) dictionaries by specifying tempalte = FALSE and then setting name = <path to your .xlsx>.

Click here for code examples

msf_dict_survey("Mortality")
#> # A tibble: 174 x 14
#>    type     name    label_english  label_french hint_english hint_french default
#>    <chr>    <chr>   <chr>          <chr>        <chr>        <chr>       <chr>  
#>  1 start    start   Start Time     <NA>         <NA>         <NA>        <NA>   
#>  2 end      end     End Time       <NA>         <NA>         <NA>        <NA>   
#>  3 today    today   Date of Survey <NA>         <NA>         <NA>        <NA>   
#>  4 deviceid device~ Phone Serial ~ <NA>         <NA>         <NA>        <NA>   
#>  5 date     date    Date           Date         <NA>         <NA>        today()
#>  6 integer  team_n~ Team number    Numéro d'éq~ <NA>         <NA>        <NA>     
#>  7 village  villag~ Village name   Nom du vill~ <NA>         <NA>        <NA>   
#>  8 text     villag~ Specify other  Autre, spéc~ <NA>         <NA>        <NA>    
#>  9 integer  cluste~ Cluster number Numéro de l~ <NA>         <NA>        <NA>    
#> 10 integer  househ~ Household num~ Numéro du m~ <NA>         <NA>        <NA>    
#> # ... with 164 more rows, and 7 more variables: relevant <chr>,
#> #   appearance <chr>, constraint <chr>, repeat_count <chr>, calculation <chr>,
#> #   value_type <chr>, options <list>
msf_dict_survey("Nutrition")
#> # A tibble: 27 x 14
#>    type     name  label_english label_french hint_english hint_french repeat_count
#>    <chr>    <chr> <chr>         <chr>        <chr>        <chr>       <chr>       
#>  1 start    start Start Time    <NA>         <NA>         <NA>        <NA>        
#>  2 end      end   End Time      <NA>         <NA>         <NA>        <NA>        
#>  3 today    today Date of Surv~ <NA>         <NA>         <NA>        <NA>        
#>  4 deviceid devi~ Phone Serial~ <NA>         <NA>         <NA>        <NA>        
#>  5 date     date  Date          <NA>         <NA>         <NA>        <NA>        
#>  6 integer  team~ Team number   <NA>         <NA>         <NA>        <NA>        
#>  7 village  vill~ Village name  Nom du vill~ <NA>         <NA>        <NA>        
#>  8 text     vill~ Specify other Précisez au~ <NA>         <NA>        <NA>         
#>  9 geopoint vill~ Village loca~ Localisatio~ <NA>         <NA>        <NA>        
#> 10 integer  clus~ Cluster numb~ Numéro de g~ <NA>         <NA>        <NA>         
#> # ... with 17 more rows, and 7 more variables: relevant <chr>,
#> #   calculation <lgl>, constraint <chr>, appearance <chr>, default <chr>,
#> #   value_type <chr>, options <list>
msf_dict_survey("Vaccination_long")
#> # A tibble: 106 x 14
#>    type     name   label_english  label_french  hint_english hint_french default
#>    <chr>    <chr>  <chr>          <chr>         <chr>        <chr>       <chr>  
#>  1 start    start  Start Time     Start Time    <NA>         <NA>        <NA>   
#>  2 end      end    End Time       End Time      <NA>         <NA>        <NA>   
#>  3 today    today  Date of Survey Date of Surv~ <NA>         <NA>        <NA>   
#>  4 deviceid devic~ Phone Serial ~ Phone Serial~ <NA>         <NA>        <NA>   
#>  5 date     date   Date           Date          <NA>         <NA>        today()
#>  6 integer  team_~ Team number    Numéro de l'~ <NA>         <NA>        <NA>    
#>  7 village  villa~ Village name   Nom du villa~ <NA>         <NA>        <NA>   
#>  8 text     villa~ Specify other  Veuillez spé~ <NA>         <NA>        <NA>    
#>  9 integer  clust~ Cluster number Numéro de la~ <NA>         <NA>        <NA>    
#> 10 integer  house~ Household num~ Numéro du mé~ <NA>         <NA>        <NA>     
#> # ... with 96 more rows, and 7 more variables: relevant <chr>,
#> #   appearance <chr>, repeat_count <chr>, constraint <chr>, calculation <chr>,
#> #   value_type <chr>, options <list>

Generating data

The {epidict} package has a function for generating data that’s called gen_data(), which takes three arguments: The dictionary, which column describes the variable names, and how many rows are needed in the output.

Click here for code examples

gen_data("Measles", varnames = "data_element_shortname", numcases = 100, org = "MSF")
#> # A tibble: 100 x 52
#>    seizure_episodes trimester croup dehydration_level_at_admi~ residential_stat~
#>    <fct>            <fct>     <fct> <fct>                      <fct>            
#>  1 0                <NA>      0     SE                         2                
#>  2 0                <NA>      0     NO                         3                
#>  3 0                <NA>      0     UN                         4                
#>  4 0                <NA>      1     UN                         2                
#>  5 1                <NA>      0     UN                         3                
#>  6 0                <NA>      1     UN                         2                
#>  7 0                <NA>      0     UN                         3                
#>  8 1                <NA>      1     SO                         1                
#>  9 1                <NA>      0     UN                         3                
#> 10 1                <NA>      0     SE                         1                
#> # ... with 90 more rows, and 47 more variables: previously_vaccinated <fct>,
#> #   patient_origin_free_text <chr>, age_days <int>, msf_involvement <fct>,
#> #   nutrition_status_at_admission <fct>, fever <fct>, sex <fct>,
#> #   patient_origin <chr>, pregnancy_outcome_at_exit <fct>,
#> #   prescribed_vitamin_a <fct>, date_of_exit <date>,
#> #   date_of_consultation_admission <date>, event_file_type <fct>,
#> #   residential_status_brief <fct>, other_eye_complications <fct>, ...
gen_data("Vaccination_long", varnames = "name", numcases = 100, org = "MSF")
#> # A tibble: 100 x 123
#>    start end   today deviceid date       team_number village_name village_other
#>    <lgl> <lgl> <lgl> <lgl>    <date>     <lgl>       <fct>        <lgl>        
#>  1 NA    NA    NA    NA       2018-01-10 NA          village_7    NA           
#>  2 NA    NA    NA    NA       2018-01-16 NA          village_6    NA           
#>  3 NA    NA    NA    NA       2018-04-16 NA          village_7    NA           
#>  4 NA    NA    NA    NA       2018-01-01 NA          village_1    NA           
#>  5 NA    NA    NA    NA       2018-03-23 NA          village_1    NA           
#>  6 NA    NA    NA    NA       2018-02-26 NA          other        NA           
#>  7 NA    NA    NA    NA       2018-02-03 NA          village_2    NA           
#>  8 NA    NA    NA    NA       2018-01-22 NA          village_7    NA           
#>  9 NA    NA    NA    NA       2018-01-08 NA          village_8    NA           
#> 10 NA    NA    NA    NA       2018-03-30 NA          village_4    NA           
#> # ... with 90 more rows, and 115 more variables: cluster_number <dbl>,
#> #   household_number <int>, households_building <int>, random_hh <int>,
#> #   consent <chr>, no_consent_reason <fct>, no_consent_other <lgl>,
#> #   caretaker_relation <fct>, caretaker_other <lgl>, number_children <dbl>,
#> #   child_number <chr>, sex <fct>, date_birth <date>, age_years <int>,
#> #   age_months <int>, any_vaccine <fct>, vaccine_card <fct>, hf_records <fct>,
#> #   health_facility <lgl>, date_records_checked <date>, ...
…
# We want the expanded dictionary, so we will select `compact = FALSE`
dict <- msf_dict(disease = "Cholera", 
  long    = TRUE,
  compact = FALSE,
  tibble  = TRUE
)
print(dict)
#> # A tibble: 182 x 11
#>    data_element_uid data_element_name   data_element_shor~ data_element_descrip~
#>    <chr>            <chr>               <chr>              <chr>                
#>  1 FF7d81Zy0yQ      egen_013_pregnancy~ trimester          If pregnant, trimest~
#>  2 FF7d81Zy0yQ      egen_013_pregnancy~ trimester          If pregnant, trimest~
#>  3 FF7d81Zy0yQ      egen_013_pregnancy~ trimester          If pregnant, trimest~
#>  4 ADfNqpCL5kf      egen_015_exit_stat~ exit_status        Final status of pati~
#>  5 ADfNqpCL5kf      egen_015_exit_stat~ exit_status        Final status of pati~
#>  6 ADfNqpCL5kf      egen_015_exit_stat~ exit_status        Final status of pati~
#>  7 ADfNqpCL5kf      egen_015_exit_stat~ exit_status        Final status of pati~
#>  8 ADfNqpCL5kf      egen_015_exit_stat~ exit_status        Final status of pati~
#>  9 ADfNqpCL5kf      egen_015_exit_stat~ exit_status        Final status of pati~
#> 10 wjCDTwXmtix      egen_064_treatment~ treatment_facilit~ Name of facility/sit~
#> # ... with 172 more rows, and 7 more variables: data_element_valuetype <chr>,
#> #   data_element_formname <chr>, used_optionset_uid <chr>, option_code <chr>,
#> #   option_name <chr>, option_uid <chr>, option_order_in_set <dbl>
…
